{
    "css/stephan.css": [
        "public/css/layout.css"
    ],
    "js/stephan.js": [
        "public/js/export_data.js",
        "public/js/form/link_formatters.js",
        "public/js/form/data.js"
    ]
}