{
 "custom_fields": [
  {
   "_assign": null, 
   "_comments": null, 
   "_liked_by": null, 
   "_user_tags": null, 
   "allow_on_submit": 0, 
   "bold": 0, 
   "collapsible": 0, 
   "collapsible_depends_on": null, 
   "columns": 0, 
   "creation": "2019-07-28 18:13:09.738192", 
   "default": null, 
   "depends_on": null, 
   "description": null, 
   "docstatus": 0, 
   "dt": "Purchase Order", 
   "fetch_from": null, 
   "fetch_if_empty": 0, 
   "fieldname": "download_link", 
   "fieldtype": "HTML", 
   "hidden": 0, 
   "idx": 127, 
   "ignore_user_permissions": 0, 
   "ignore_xss_filter": 0, 
   "in_global_search": 0, 
   "in_list_view": 0, 
   "in_standard_filter": 0, 
   "insert_after": "url_supplied_items", 
   "label": "Download Link", 
   "modified": "2019-07-28 18:13:09.738192", 
   "modified_by": "Administrator", 
   "name": "Purchase Order-download_link", 
   "no_copy": 0, 
   "options": null, 
   "owner": "Administrator", 
   "parent": null, 
   "parentfield": null, 
   "parenttype": null, 
   "permlevel": 0, 
   "precision": "", 
   "print_hide": 0, 
   "print_hide_if_no_value": 0, 
   "print_width": null, 
   "read_only": 0, 
   "report_hide": 0, 
   "reqd": 0, 
   "search_index": 0, 
   "translatable": 0, 
   "unique": 0, 
   "width": null
  }, 
  {
   "_assign": null, 
   "_comments": null, 
   "_liked_by": null, 
   "_user_tags": null, 
   "allow_on_submit": 1, 
   "bold": 0, 
   "collapsible": 0, 
   "collapsible_depends_on": null, 
   "columns": 0, 
   "creation": "2019-06-22 19:15:45.373857", 
   "default": null, 
   "depends_on": null, 
   "description": null, 
   "docstatus": 0, 
   "dt": "Purchase Order", 
   "fetch_from": null, 
   "fetch_if_empty": 0, 
   "fieldname": "download_as_excel", 
   "fieldtype": "Button", 
   "hidden": 0, 
   "idx": 54, 
   "ignore_user_permissions": 0, 
   "ignore_xss_filter": 0, 
   "in_global_search": 0, 
   "in_list_view": 0, 
   "in_standard_filter": 0, 
   "insert_after": "download_as_pdf", 
   "label": "Download Items as Excel", 
   "modified": "2019-06-22 19:15:45.373857", 
   "modified_by": "Administrator", 
   "name": "Purchase Order-download_as_excel", 
   "no_copy": 0, 
   "options": null, 
   "owner": "Administrator", 
   "parent": null, 
   "parentfield": null, 
   "parenttype": null, 
   "permlevel": 0, 
   "precision": "", 
   "print_hide": 0, 
   "print_hide_if_no_value": 0, 
   "print_width": null, 
   "read_only": 0, 
   "report_hide": 0, 
   "reqd": 0, 
   "search_index": 0, 
   "translatable": 0, 
   "unique": 0, 
   "width": null
  }, 
  {
   "_assign": null, 
   "_comments": null, 
   "_liked_by": null, 
   "_user_tags": null, 
   "allow_on_submit": 1, 
   "bold": 0, 
   "collapsible": 0, 
   "collapsible_depends_on": null, 
   "columns": 0, 
   "creation": "2019-06-22 16:52:11.953283", 
   "default": null, 
   "depends_on": null, 
   "description": null, 
   "docstatus": 0, 
   "dt": "Purchase Order", 
   "fetch_from": null, 
   "fetch_if_empty": 0, 
   "fieldname": "download_as_pdf", 
   "fieldtype": "Button", 
   "hidden": 0, 
   "idx": 53, 
   "ignore_user_permissions": 0, 
   "ignore_xss_filter": 0, 
   "in_global_search": 0, 
   "in_list_view": 0, 
   "in_standard_filter": 0, 
   "insert_after": "items", 
   "label": "Download BOMs as PDF", 
   "modified": "2019-06-22 16:52:11.953283", 
   "modified_by": "Administrator", 
   "name": "Purchase Order-download_as_pdf", 
   "no_copy": 0, 
   "options": null, 
   "owner": "Administrator", 
   "parent": null, 
   "parentfield": null, 
   "parenttype": null, 
   "permlevel": 0, 
   "precision": "", 
   "print_hide": 0, 
   "print_hide_if_no_value": 0, 
   "print_width": null, 
   "read_only": 0, 
   "report_hide": 0, 
   "reqd": 0, 
   "search_index": 0, 
   "translatable": 0, 
   "unique": 0, 
   "width": null
  }, 
  {
   "_assign": null, 
   "_comments": null, 
   "_liked_by": null, 
   "_user_tags": null, 
   "allow_on_submit": 0, 
   "bold": 0, 
   "collapsible": 0, 
   "collapsible_depends_on": null, 
   "columns": 0, 
   "creation": "2019-06-11 05:13:07.465971", 
   "default": null, 
   "depends_on": null, 
   "description": null, 
   "docstatus": 0, 
   "dt": "Purchase Order", 
   "fetch_from": null, 
   "fetch_if_empty": 0, 
   "fieldname": "url_supplied_items", 
   "fieldtype": "Attach", 
   "hidden": 0, 
   "idx": 126, 
   "ignore_user_permissions": 0, 
   "ignore_xss_filter": 0, 
   "in_global_search": 0, 
   "in_list_view": 0, 
   "in_standard_filter": 0, 
   "insert_after": "update_auto_repeat_reference", 
   "label": "URL Supplied Items", 
   "modified": "2019-06-11 05:13:07.465971", 
   "modified_by": "Administrator", 
   "name": "Purchase Order-url_supplied_items", 
   "no_copy": 0, 
   "options": null, 
   "owner": "Administrator", 
   "parent": null, 
   "parentfield": null, 
   "parenttype": null, 
   "permlevel": 0, 
   "precision": "", 
   "print_hide": 0, 
   "print_hide_if_no_value": 0, 
   "print_width": null, 
   "read_only": 0, 
   "report_hide": 0, 
   "reqd": 0, 
   "search_index": 0, 
   "translatable": 0, 
   "unique": 0, 
   "width": null
  }, 
  {
   "_assign": null, 
   "_comments": null, 
   "_liked_by": null, 
   "_user_tags": null, 
   "allow_on_submit": 0, 
   "bold": 0, 
   "collapsible": 0, 
   "collapsible_depends_on": null, 
   "columns": 0, 
   "creation": "2018-11-27 19:03:03.255478", 
   "default": null, 
   "depends_on": null, 
   "description": null, 
   "docstatus": 0, 
   "dt": "Purchase Order", 
   "fetch_from": null, 
   "fetch_if_empty": 0, 
   "fieldname": "overwrite_reserve_warehouse", 
   "fieldtype": "Check", 
   "hidden": 0, 
   "idx": 56, 
   "ignore_user_permissions": 0, 
   "ignore_xss_filter": 0, 
   "in_global_search": 0, 
   "in_list_view": 0, 
   "in_standard_filter": 0, 
   "insert_after": "raw_material_details", 
   "label": "Overwrite Reserve Warehouse", 
   "modified": "2019-03-07 02:46:20.198799", 
   "modified_by": "Administrator", 
   "name": "Purchase Order-overwrite_reserve_warehouse", 
   "no_copy": 0, 
   "options": null, 
   "owner": "Administrator", 
   "parent": null, 
   "parentfield": null, 
   "parenttype": null, 
   "permlevel": 0, 
   "precision": "", 
   "print_hide": 1, 
   "print_hide_if_no_value": 0, 
   "print_width": null, 
   "read_only": 0, 
   "report_hide": 0, 
   "reqd": 0, 
   "search_index": 0, 
   "translatable": 0, 
   "unique": 0, 
   "width": null
  }, 
  {
   "_assign": null, 
   "_comments": null, 
   "_liked_by": null, 
   "_user_tags": null, 
   "allow_on_submit": 0, 
   "bold": 0, 
   "collapsible": 0, 
   "collapsible_depends_on": null, 
   "columns": 0, 
   "creation": "2019-01-29 21:03:08.649596", 
   "default": null, 
   "depends_on": null, 
   "description": null, 
   "docstatus": 0, 
   "dt": "Purchase Order", 
   "fetch_from": null, 
   "fetch_if_empty": 0, 
   "fieldname": "wird_ben\u00f6tigt_f\u00fcr", 
   "fieldtype": "Small Text", 
   "hidden": 0, 
   "idx": 9, 
   "ignore_user_permissions": 0, 
   "ignore_xss_filter": 0, 
   "in_global_search": 0, 
   "in_list_view": 0, 
   "in_standard_filter": 0, 
   "insert_after": "kommentar_zum_auftrag_sec", 
   "label": "Beauftragt von", 
   "modified": "2019-01-29 21:03:08.649596", 
   "modified_by": "Administrator", 
   "name": "Purchase Order-wird_ben\u00f6tigt_f\u00fcr", 
   "no_copy": 0, 
   "options": null, 
   "owner": "Administrator", 
   "parent": null, 
   "parentfield": null, 
   "parenttype": null, 
   "permlevel": 0, 
   "precision": "", 
   "print_hide": 0, 
   "print_hide_if_no_value": 0, 
   "print_width": null, 
   "read_only": 0, 
   "report_hide": 0, 
   "reqd": 1, 
   "search_index": 0, 
   "translatable": 0, 
   "unique": 0, 
   "width": null
  }, 
  {
   "_assign": null, 
   "_comments": null, 
   "_liked_by": null, 
   "_user_tags": null, 
   "allow_on_submit": 0, 
   "bold": 0, 
   "collapsible": 0, 
   "collapsible_depends_on": null, 
   "columns": 0, 
   "creation": "2019-01-20 07:49:20.280942", 
   "default": null, 
   "depends_on": null, 
   "description": null, 
   "docstatus": 0, 
   "dt": "Purchase Order", 
   "fetch_from": null, 
   "fetch_if_empty": 0, 
   "fieldname": "kommentar_zum_auftrag_sec", 
   "fieldtype": "Section Break", 
   "hidden": 0, 
   "idx": 8, 
   "ignore_user_permissions": 0, 
   "ignore_xss_filter": 0, 
   "in_global_search": 0, 
   "in_list_view": 0, 
   "in_standard_filter": 0, 
   "insert_after": "company", 
   "label": "", 
   "modified": "2019-01-20 07:49:20.280942", 
   "modified_by": "Administrator", 
   "name": "Purchase Order-kommentar_zum_auftrag_sec", 
   "no_copy": 0, 
   "options": null, 
   "owner": "Administrator", 
   "parent": null, 
   "parentfield": null, 
   "parenttype": null, 
   "permlevel": 0, 
   "precision": "", 
   "print_hide": 0, 
   "print_hide_if_no_value": 0, 
   "print_width": null, 
   "read_only": 0, 
   "report_hide": 0, 
   "reqd": 0, 
   "search_index": 0, 
   "translatable": 0, 
   "unique": 0, 
   "width": null
  }, 
  {
   "_assign": null, 
   "_comments": null, 
   "_liked_by": null, 
   "_user_tags": null, 
   "allow_on_submit": 0, 
   "bold": 0, 
   "collapsible": 0, 
   "collapsible_depends_on": null, 
   "columns": 0, 
   "creation": "2019-01-20 07:38:04.353003", 
   "default": null, 
   "depends_on": null, 
   "description": null, 
   "docstatus": 0, 
   "dt": "Purchase Order", 
   "fetch_from": null, 
   "fetch_if_empty": 0, 
   "fieldname": "kommentar_zum_auftrag", 
   "fieldtype": "Small Text", 
   "hidden": 0, 
   "idx": 10, 
   "ignore_user_permissions": 0, 
   "ignore_xss_filter": 0, 
   "in_global_search": 0, 
   "in_list_view": 0, 
   "in_standard_filter": 0, 
   "insert_after": "wird_ben\u00f6tigt_f\u00fcr", 
   "label": "Kommentar zum Auftrag", 
   "modified": "2019-01-20 07:38:04.353003", 
   "modified_by": "Administrator", 
   "name": "Purchase Order-kommentar_zum_auftrag", 
   "no_copy": 0, 
   "options": null, 
   "owner": "Administrator", 
   "parent": null, 
   "parentfield": null, 
   "parenttype": null, 
   "permlevel": 0, 
   "precision": "", 
   "print_hide": 0, 
   "print_hide_if_no_value": 0, 
   "print_width": null, 
   "read_only": 0, 
   "report_hide": 0, 
   "reqd": 1, 
   "search_index": 0, 
   "translatable": 0, 
   "unique": 0, 
   "width": null
  }, 
  {
   "_assign": null, 
   "_comments": null, 
   "_liked_by": null, 
   "_user_tags": null, 
   "allow_on_submit": 0, 
   "bold": 0, 
   "collapsible": 0, 
   "collapsible_depends_on": null, 
   "columns": 0, 
   "creation": "2018-11-29 12:55:40.637032", 
   "default": null, 
   "depends_on": null, 
   "description": null, 
   "docstatus": 0, 
   "dt": "Purchase Order", 
   "fetch_from": null, 
   "fetch_if_empty": 0, 
   "fieldname": "overwrite_default_warehouse", 
   "fieldtype": "Check", 
   "hidden": 0, 
   "idx": 49, 
   "ignore_user_permissions": 0, 
   "ignore_xss_filter": 0, 
   "in_global_search": 0, 
   "in_list_view": 0, 
   "in_standard_filter": 0, 
   "insert_after": "items_section", 
   "label": "Overwrite Default Warehouse", 
   "modified": "2018-11-29 12:55:40.637032", 
   "modified_by": "Administrator", 
   "name": "Purchase Order-overwrite_default_warehouse", 
   "no_copy": 0, 
   "options": null, 
   "owner": "Administrator", 
   "parent": null, 
   "parentfield": null, 
   "parenttype": null, 
   "permlevel": 0, 
   "precision": "", 
   "print_hide": 1, 
   "print_hide_if_no_value": 0, 
   "print_width": null, 
   "read_only": 0, 
   "report_hide": 0, 
   "reqd": 0, 
   "search_index": 0, 
   "translatable": 0, 
   "unique": 0, 
   "width": null
  }, 
  {
   "_assign": null, 
   "_comments": null, 
   "_liked_by": null, 
   "_user_tags": null, 
   "allow_on_submit": 0, 
   "bold": 0, 
   "collapsible": 0, 
   "collapsible_depends_on": null, 
   "columns": 0, 
   "creation": "2018-11-27 19:03:09.888728", 
   "default": null, 
   "depends_on": null, 
   "description": null, 
   "docstatus": 0, 
   "dt": "Purchase Order", 
   "fetch_from": null, 
   "fetch_if_empty": 0, 
   "fieldname": "default_reserve_warehouse", 
   "fieldtype": "Link", 
   "hidden": 0, 
   "idx": 57, 
   "ignore_user_permissions": 0, 
   "ignore_xss_filter": 0, 
   "in_global_search": 0, 
   "in_list_view": 0, 
   "in_standard_filter": 0, 
   "insert_after": "overwrite_reserve_warehouse", 
   "label": "default Reserve Warehouse", 
   "modified": "2018-11-27 19:03:09.888728", 
   "modified_by": "Administrator", 
   "name": "Purchase Order-default_reserve_warehouse", 
   "no_copy": 0, 
   "options": "Warehouse", 
   "owner": "Administrator", 
   "parent": null, 
   "parentfield": null, 
   "parenttype": null, 
   "permlevel": 0, 
   "precision": "", 
   "print_hide": 1, 
   "print_hide_if_no_value": 0, 
   "print_width": null, 
   "read_only": 0, 
   "report_hide": 0, 
   "reqd": 0, 
   "search_index": 0, 
   "translatable": 0, 
   "unique": 0, 
   "width": null
  }, 
  {
   "_assign": null, 
   "_comments": null, 
   "_liked_by": null, 
   "_user_tags": null, 
   "allow_on_submit": 0, 
   "bold": 0, 
   "collapsible": 0, 
   "collapsible_depends_on": null, 
   "columns": 0, 
   "creation": "2018-11-20 17:44:36.122278", 
   "default": null, 
   "depends_on": null, 
   "description": null, 
   "docstatus": 0, 
   "dt": "Purchase Order", 
   "fetch_from": null, 
   "fetch_if_empty": 0, 
   "fieldname": "default_warehouse", 
   "fieldtype": "Link", 
   "hidden": 0, 
   "idx": 50, 
   "ignore_user_permissions": 0, 
   "ignore_xss_filter": 0, 
   "in_global_search": 0, 
   "in_list_view": 1, 
   "in_standard_filter": 1, 
   "insert_after": "overwrite_default_warehouse", 
   "label": "Default Warehouse", 
   "modified": "2018-11-20 17:44:36.122278", 
   "modified_by": "Administrator", 
   "name": "Purchase Order-default_warehouse", 
   "no_copy": 0, 
   "options": "Warehouse", 
   "owner": "Administrator", 
   "parent": null, 
   "parentfield": null, 
   "parenttype": null, 
   "permlevel": 0, 
   "precision": "", 
   "print_hide": 0, 
   "print_hide_if_no_value": 0, 
   "print_width": null, 
   "read_only": 0, 
   "report_hide": 0, 
   "reqd": 0, 
   "search_index": 0, 
   "translatable": 0, 
   "unique": 0, 
   "width": null
  }
 ], 
 "custom_perms": [], 
 "doctype": "Purchase Order", 
 "property_setters": [
  {
   "_assign": null, 
   "_comments": null, 
   "_liked_by": null, 
   "_user_tags": null, 
   "creation": "2020-01-24 15:26:40.119986", 
   "default_value": null, 
   "doc_type": "Purchase Order", 
   "docstatus": 0, 
   "doctype_or_field": "DocField", 
   "field_name": "title", 
   "idx": 0, 
   "modified": "2020-01-24 15:26:40.119986", 
   "modified_by": "Administrator", 
   "name": "Purchase Order-title-in_standard_filter", 
   "owner": "Administrator", 
   "parent": null, 
   "parentfield": null, 
   "parenttype": null, 
   "property": "in_standard_filter", 
   "property_type": "Check", 
   "value": "1"
  }, 
  {
   "_assign": null, 
   "_comments": null, 
   "_liked_by": null, 
   "_user_tags": null, 
   "creation": "2020-01-24 15:26:40.058928", 
   "default_value": null, 
   "doc_type": "Purchase Order", 
   "docstatus": 0, 
   "doctype_or_field": "DocType", 
   "field_name": null, 
   "idx": 0, 
   "modified": "2020-01-24 15:26:40.058928", 
   "modified_by": "Administrator", 
   "name": "Purchase Order-read_only_onload", 
   "owner": "Administrator", 
   "parent": null, 
   "parentfield": null, 
   "parenttype": null, 
   "property": "read_only_onload", 
   "property_type": "Check", 
   "value": null
  }, 
  {
   "_assign": null, 
   "_comments": null, 
   "_liked_by": null, 
   "_user_tags": null, 
   "creation": "2019-07-25 17:24:20.363707", 
   "default_value": null, 
   "doc_type": "Purchase Order", 
   "docstatus": 0, 
   "doctype_or_field": "DocType", 
   "field_name": null, 
   "idx": 0, 
   "modified": "2019-07-25 17:24:20.363707", 
   "modified_by": "Administrator", 
   "name": "Purchase Order-default_print_format", 
   "owner": "Administrator", 
   "parent": null, 
   "parentfield": null, 
   "parenttype": null, 
   "property": "default_print_format", 
   "property_type": "Data", 
   "value": "Standard - PO"
  }, 
  {
   "_assign": null, 
   "_comments": null, 
   "_liked_by": null, 
   "_user_tags": null, 
   "creation": "2019-01-29 21:01:10.274141", 
   "default_value": null, 
   "doc_type": "Purchase Order", 
   "docstatus": 0, 
   "doctype_or_field": "DocField", 
   "field_name": "disable_rounded_total", 
   "idx": 0, 
   "modified": "2019-01-29 21:01:10.274141", 
   "modified_by": "Administrator", 
   "name": "Purchase Order-disable_rounded_total-print_hide", 
   "owner": "Administrator", 
   "parent": null, 
   "parentfield": null, 
   "parenttype": null, 
   "property": "print_hide", 
   "property_type": "Check", 
   "value": "1"
  }, 
  {
   "_assign": null, 
   "_comments": null, 
   "_liked_by": null, 
   "_user_tags": null, 
   "creation": "2019-01-29 21:01:10.267108", 
   "default_value": null, 
   "doc_type": "Purchase Order", 
   "docstatus": 0, 
   "doctype_or_field": "DocField", 
   "field_name": "rounded_total", 
   "idx": 0, 
   "modified": "2019-01-29 21:01:10.267108", 
   "modified_by": "Administrator", 
   "name": "Purchase Order-rounded_total-print_hide", 
   "owner": "Administrator", 
   "parent": null, 
   "parentfield": null, 
   "parenttype": null, 
   "property": "print_hide", 
   "property_type": "Check", 
   "value": "1"
  }, 
  {
   "_assign": null, 
   "_comments": null, 
   "_liked_by": null, 
   "_user_tags": null, 
   "creation": "2019-01-29 21:01:10.231937", 
   "default_value": null, 
   "doc_type": "Purchase Order", 
   "docstatus": 0, 
   "doctype_or_field": "DocField", 
   "field_name": "grand_total", 
   "idx": 0, 
   "modified": "2019-01-29 21:01:10.231937", 
   "modified_by": "Administrator", 
   "name": "Purchase Order-grand_total-print_hide", 
   "owner": "Administrator", 
   "parent": null, 
   "parentfield": null, 
   "parenttype": null, 
   "property": "print_hide", 
   "property_type": "Check", 
   "value": "1"
  }, 
  {
   "_assign": null, 
   "_comments": null, 
   "_liked_by": null, 
   "_user_tags": null, 
   "creation": "2019-01-29 20:59:28.490274", 
   "default_value": null, 
   "doc_type": "Purchase Order", 
   "docstatus": 0, 
   "doctype_or_field": "DocField", 
   "field_name": "total", 
   "idx": 0, 
   "modified": "2019-01-29 20:59:28.490274", 
   "modified_by": "Administrator", 
   "name": "Purchase Order-total-print_hide", 
   "owner": "Administrator", 
   "parent": null, 
   "parentfield": null, 
   "parenttype": null, 
   "property": "print_hide", 
   "property_type": "Check", 
   "value": "1"
  }, 
  {
   "_assign": null, 
   "_comments": null, 
   "_liked_by": null, 
   "_user_tags": null, 
   "creation": "2019-01-29 20:55:47.730351", 
   "default_value": null, 
   "doc_type": "Purchase Order", 
   "docstatus": 0, 
   "doctype_or_field": "DocField", 
   "field_name": "payment_schedule_section", 
   "idx": 0, 
   "modified": "2019-01-29 20:55:47.730351", 
   "modified_by": "Administrator", 
   "name": "Purchase Order-payment_schedule_section-print_hide", 
   "owner": "Administrator", 
   "parent": null, 
   "parentfield": null, 
   "parenttype": null, 
   "property": "print_hide", 
   "property_type": "Check", 
   "value": "1"
  }, 
  {
   "_assign": null, 
   "_comments": null, 
   "_liked_by": null, 
   "_user_tags": null, 
   "creation": "2019-01-29 20:55:47.716871", 
   "default_value": null, 
   "doc_type": "Purchase Order", 
   "docstatus": 0, 
   "doctype_or_field": "DocField", 
   "field_name": "totals_section", 
   "idx": 0, 
   "modified": "2019-01-29 20:55:47.716871", 
   "modified_by": "Administrator", 
   "name": "Purchase Order-totals_section-print_hide", 
   "owner": "Administrator", 
   "parent": null, 
   "parentfield": null, 
   "parenttype": null, 
   "property": "print_hide", 
   "property_type": "Check", 
   "value": "1"
  }, 
  {
   "_assign": null, 
   "_comments": null, 
   "_liked_by": null, 
   "_user_tags": null, 
   "creation": "2019-01-29 20:55:47.703483", 
   "default_value": null, 
   "doc_type": "Purchase Order", 
   "docstatus": 0, 
   "doctype_or_field": "DocField", 
   "field_name": "discount_section", 
   "idx": 0, 
   "modified": "2019-01-29 20:55:47.703483", 
   "modified_by": "Administrator", 
   "name": "Purchase Order-discount_section-print_hide", 
   "owner": "Administrator", 
   "parent": null, 
   "parentfield": null, 
   "parenttype": null, 
   "property": "print_hide", 
   "property_type": "Check", 
   "value": "1"
  }, 
  {
   "_assign": null, 
   "_comments": null, 
   "_liked_by": null, 
   "_user_tags": null, 
   "creation": "2019-01-29 20:55:47.691404", 
   "default_value": null, 
   "doc_type": "Purchase Order", 
   "docstatus": 0, 
   "doctype_or_field": "DocField", 
   "field_name": "totals", 
   "idx": 0, 
   "modified": "2019-01-29 20:55:47.691404", 
   "modified_by": "Administrator", 
   "name": "Purchase Order-totals-print_hide", 
   "owner": "Administrator", 
   "parent": null, 
   "parentfield": null, 
   "parenttype": null, 
   "property": "print_hide", 
   "property_type": "Check", 
   "value": "1"
  }, 
  {
   "_assign": null, 
   "_comments": null, 
   "_liked_by": null, 
   "_user_tags": null, 
   "creation": "2019-01-29 20:55:47.666910", 
   "default_value": null, 
   "doc_type": "Purchase Order", 
   "docstatus": 0, 
   "doctype_or_field": "DocField", 
   "field_name": "sb_last_purchase", 
   "idx": 0, 
   "modified": "2019-01-29 20:55:47.666910", 
   "modified_by": "Administrator", 
   "name": "Purchase Order-sb_last_purchase-print_hide", 
   "owner": "Administrator", 
   "parent": null, 
   "parentfield": null, 
   "parenttype": null, 
   "property": "print_hide", 
   "property_type": "Check", 
   "value": "1"
  }, 
  {
   "_assign": null, 
   "_comments": null, 
   "_liked_by": null, 
   "_user_tags": null, 
   "creation": "2019-01-17 07:26:51.645313", 
   "default_value": null, 
   "doc_type": "Purchase Order", 
   "docstatus": 0, 
   "doctype_or_field": "DocField", 
   "field_name": "supplied_items", 
   "idx": 0, 
   "modified": "2019-01-17 07:26:51.645313", 
   "modified_by": "Administrator", 
   "name": "Purchase Order-supplied_items-allow_bulk_edit", 
   "owner": "Administrator", 
   "parent": null, 
   "parentfield": null, 
   "parenttype": null, 
   "property": "allow_bulk_edit", 
   "property_type": "Check", 
   "value": "1"
  }, 
  {
   "_assign": null, 
   "_comments": null, 
   "_liked_by": null, 
   "_user_tags": null, 
   "creation": "2018-12-07 17:16:52.462978", 
   "default_value": null, 
   "doc_type": "Purchase Order", 
   "docstatus": 0, 
   "doctype_or_field": "DocField", 
   "field_name": "company", 
   "idx": 0, 
   "modified": "2018-12-07 17:16:52.462978", 
   "modified_by": "Administrator", 
   "name": "Purchase Order-company-in_standard_filter", 
   "owner": "Administrator", 
   "parent": null, 
   "parentfield": null, 
   "parenttype": null, 
   "property": "in_standard_filter", 
   "property_type": "Check", 
   "value": "0"
  }, 
  {
   "_assign": null, 
   "_comments": null, 
   "_liked_by": null, 
   "_user_tags": null, 
   "creation": "2018-10-03 03:36:15.100338", 
   "default_value": null, 
   "doc_type": "Purchase Order", 
   "docstatus": 0, 
   "doctype_or_field": "DocField", 
   "field_name": "payment_schedule", 
   "idx": 0, 
   "modified": "2018-10-03 03:36:15.100338", 
   "modified_by": "Administrator", 
   "name": "Purchase Order-payment_schedule-print_hide", 
   "owner": "Administrator", 
   "parent": null, 
   "parentfield": null, 
   "parenttype": null, 
   "property": "print_hide", 
   "property_type": "Check", 
   "value": "1"
  }, 
  {
   "_assign": null, 
   "_comments": null, 
   "_liked_by": null, 
   "_user_tags": null, 
   "creation": "2018-10-03 03:36:14.978921", 
   "default_value": null, 
   "doc_type": "Purchase Order", 
   "docstatus": 0, 
   "doctype_or_field": "DocField", 
   "field_name": "due_date", 
   "idx": 0, 
   "modified": "2018-10-03 03:36:14.978921", 
   "modified_by": "Administrator", 
   "name": "Purchase Order-due_date-print_hide", 
   "owner": "Administrator", 
   "parent": null, 
   "parentfield": null, 
   "parenttype": null, 
   "property": "print_hide", 
   "property_type": "Check", 
   "value": "0"
  }, 
  {
   "_assign": null, 
   "_comments": null, 
   "_liked_by": null, 
   "_user_tags": null, 
   "creation": "2018-10-03 00:08:45.140428", 
   "default_value": null, 
   "doc_type": "Purchase Order", 
   "docstatus": 0, 
   "doctype_or_field": "DocField", 
   "field_name": "in_words", 
   "idx": 0, 
   "modified": "2018-10-03 00:08:45.140428", 
   "modified_by": "Stephanhelbig@silberfaedchen.de", 
   "name": "Purchase Order-in_words-hidden", 
   "owner": "Stephanhelbig@silberfaedchen.de", 
   "parent": null, 
   "parentfield": null, 
   "parenttype": null, 
   "property": "hidden", 
   "property_type": "Check", 
   "value": "0"
  }, 
  {
   "_assign": null, 
   "_comments": null, 
   "_liked_by": null, 
   "_user_tags": null, 
   "creation": "2018-10-03 00:08:43.862518", 
   "default_value": null, 
   "doc_type": "Purchase Order", 
   "docstatus": 0, 
   "doctype_or_field": "DocField", 
   "field_name": "rounded_total", 
   "idx": 0, 
   "modified": "2018-10-03 00:08:43.862518", 
   "modified_by": "Stephanhelbig@silberfaedchen.de", 
   "name": "Purchase Order-rounded_total-hidden", 
   "owner": "Stephanhelbig@silberfaedchen.de", 
   "parent": null, 
   "parentfield": null, 
   "parenttype": null, 
   "property": "hidden", 
   "property_type": "Check", 
   "value": "0"
  }, 
  {
   "_assign": null, 
   "_comments": null, 
   "_liked_by": null, 
   "_user_tags": null, 
   "creation": "2018-10-03 00:08:43.749728", 
   "default_value": null, 
   "doc_type": "Purchase Order", 
   "docstatus": 0, 
   "doctype_or_field": "DocField", 
   "field_name": "base_rounded_total", 
   "idx": 0, 
   "modified": "2018-10-03 00:08:43.749728", 
   "modified_by": "Stephanhelbig@silberfaedchen.de", 
   "name": "Purchase Order-base_rounded_total-print_hide", 
   "owner": "Stephanhelbig@silberfaedchen.de", 
   "parent": null, 
   "parentfield": null, 
   "parenttype": null, 
   "property": "print_hide", 
   "property_type": "Check", 
   "value": "1"
  }, 
  {
   "_assign": null, 
   "_comments": null, 
   "_liked_by": null, 
   "_user_tags": null, 
   "creation": "2018-10-03 00:08:43.637627", 
   "default_value": null, 
   "doc_type": "Purchase Order", 
   "docstatus": 0, 
   "doctype_or_field": "DocField", 
   "field_name": "base_rounded_total", 
   "idx": 0, 
   "modified": "2018-10-03 00:08:43.637627", 
   "modified_by": "Stephanhelbig@silberfaedchen.de", 
   "name": "Purchase Order-base_rounded_total-hidden", 
   "owner": "Stephanhelbig@silberfaedchen.de", 
   "parent": null, 
   "parentfield": null, 
   "parenttype": null, 
   "property": "hidden", 
   "property_type": "Check", 
   "value": "0"
  }
 ], 
 "sync_on_migrate": 1
}