{
 "custom_fields": [
  {
   "_assign": null, 
   "_comments": null, 
   "_liked_by": null, 
   "_user_tags": null, 
   "allow_on_submit": 0, 
   "bold": 0, 
   "collapsible": 0, 
   "collapsible_depends_on": null, 
   "columns": 0, 
   "creation": "2019-09-15 15:43:48.846488", 
   "default": null, 
   "depends_on": null, 
   "description": null, 
   "docstatus": 0, 
   "dt": "Stock Entry", 
   "fetch_from": null, 
   "fetch_if_empty": 0, 
   "fieldname": "download_link", 
   "fieldtype": "HTML", 
   "hidden": 0, 
   "idx": 65, 
   "ignore_user_permissions": 0, 
   "ignore_xss_filter": 0, 
   "in_global_search": 0, 
   "in_list_view": 0, 
   "in_standard_filter": 0, 
   "insert_after": "credit_note", 
   "label": "download_link", 
   "modified": "2019-09-15 15:43:48.846488", 
   "modified_by": "Administrator", 
   "name": "Stock Entry-download_link", 
   "no_copy": 0, 
   "options": null, 
   "owner": "Administrator", 
   "parent": null, 
   "parentfield": null, 
   "parenttype": null, 
   "permlevel": 0, 
   "precision": "", 
   "print_hide": 0, 
   "print_hide_if_no_value": 0, 
   "print_width": null, 
   "read_only": 0, 
   "report_hide": 0, 
   "reqd": 0, 
   "search_index": 0, 
   "translatable": 0, 
   "unique": 0, 
   "width": null
  }, 
  {
   "_assign": null, 
   "_comments": null, 
   "_liked_by": null, 
   "_user_tags": null, 
   "allow_on_submit": 1, 
   "bold": 0, 
   "collapsible": 0, 
   "collapsible_depends_on": null, 
   "columns": 0, 
   "creation": "2019-09-15 15:42:30.191851", 
   "default": null, 
   "depends_on": null, 
   "description": null, 
   "docstatus": 0, 
   "dt": "Stock Entry", 
   "fetch_from": null, 
   "fetch_if_empty": 0, 
   "fieldname": "download_summarized", 
   "fieldtype": "Button", 
   "hidden": 0, 
   "idx": 34, 
   "ignore_user_permissions": 0, 
   "ignore_xss_filter": 0, 
   "in_global_search": 0, 
   "in_list_view": 0, 
   "in_standard_filter": 0, 
   "insert_after": "items", 
   "label": "Download Summarized", 
   "modified": "2019-09-15 15:42:30.191851", 
   "modified_by": "Administrator", 
   "name": "Stock Entry-download_summarized", 
   "no_copy": 0, 
   "options": null, 
   "owner": "Administrator", 
   "parent": null, 
   "parentfield": null, 
   "parenttype": null, 
   "permlevel": 0, 
   "precision": "", 
   "print_hide": 0, 
   "print_hide_if_no_value": 0, 
   "print_width": null, 
   "read_only": 0, 
   "report_hide": 0, 
   "reqd": 0, 
   "search_index": 0, 
   "translatable": 0, 
   "unique": 0, 
   "width": null
  }
 ], 
 "custom_perms": [], 
 "doctype": "Stock Entry", 
 "property_setters": [
  {
   "_assign": null, 
   "_comments": null, 
   "_liked_by": null, 
   "_user_tags": null, 
   "creation": "2019-09-15 15:44:07.551634", 
   "default_value": null, 
   "doc_type": "Stock Entry", 
   "docstatus": 0, 
   "doctype_or_field": "DocType", 
   "field_name": null, 
   "idx": 0, 
   "modified": "2019-09-15 15:44:07.551634", 
   "modified_by": "Administrator", 
   "name": "Stock Entry-read_only_onload", 
   "owner": "Administrator", 
   "parent": null, 
   "parentfield": null, 
   "parenttype": null, 
   "property": "read_only_onload", 
   "property_type": "Check", 
   "value": null
  }, 
  {
   "_assign": null, 
   "_comments": null, 
   "_liked_by": null, 
   "_user_tags": null, 
   "creation": "2019-07-14 13:32:23.685434", 
   "default_value": null, 
   "doc_type": "Stock Entry", 
   "docstatus": 0, 
   "doctype_or_field": "DocField", 
   "field_name": "title", 
   "idx": 0, 
   "modified": "2019-07-14 13:32:23.685434", 
   "modified_by": "Administrator", 
   "name": "Stock Entry-title-in_global_search", 
   "owner": "Administrator", 
   "parent": null, 
   "parentfield": null, 
   "parenttype": null, 
   "property": "in_global_search", 
   "property_type": "Check", 
   "value": "1"
  }, 
  {
   "_assign": null, 
   "_comments": null, 
   "_liked_by": null, 
   "_user_tags": null, 
   "creation": "2019-07-14 13:32:23.681126", 
   "default_value": null, 
   "doc_type": "Stock Entry", 
   "docstatus": 0, 
   "doctype_or_field": "DocField", 
   "field_name": "title", 
   "idx": 0, 
   "modified": "2019-07-14 13:32:23.681126", 
   "modified_by": "Administrator", 
   "name": "Stock Entry-title-in_standard_filter", 
   "owner": "Administrator", 
   "parent": null, 
   "parentfield": null, 
   "parenttype": null, 
   "property": "in_standard_filter", 
   "property_type": "Check", 
   "value": "1"
  }, 
  {
   "_assign": null, 
   "_comments": null, 
   "_liked_by": null, 
   "_user_tags": null, 
   "creation": "2018-11-07 11:34:40.033756", 
   "default_value": null, 
   "doc_type": "Stock Entry", 
   "docstatus": 0, 
   "doctype_or_field": "DocField", 
   "field_name": "total_amount", 
   "idx": 0, 
   "modified": "2018-11-07 11:34:40.033756", 
   "modified_by": "Administrator", 
   "name": "Stock Entry-total_amount-print_hide", 
   "owner": "Administrator", 
   "parent": null, 
   "parentfield": null, 
   "parenttype": null, 
   "property": "print_hide", 
   "property_type": "Check", 
   "value": "1"
  }, 
  {
   "_assign": null, 
   "_comments": null, 
   "_liked_by": null, 
   "_user_tags": null, 
   "creation": "2018-11-07 11:34:39.839847", 
   "default_value": null, 
   "doc_type": "Stock Entry", 
   "docstatus": 0, 
   "doctype_or_field": "DocField", 
   "field_name": "value_difference", 
   "idx": 0, 
   "modified": "2018-11-07 11:34:39.839847", 
   "modified_by": "Administrator", 
   "name": "Stock Entry-value_difference-print_hide", 
   "owner": "Administrator", 
   "parent": null, 
   "parentfield": null, 
   "parenttype": null, 
   "property": "print_hide", 
   "property_type": "Check", 
   "value": "1"
  }, 
  {
   "_assign": null, 
   "_comments": null, 
   "_liked_by": null, 
   "_user_tags": null, 
   "creation": "2018-11-07 11:34:38.626560", 
   "default_value": null, 
   "doc_type": "Stock Entry", 
   "docstatus": 0, 
   "doctype_or_field": "DocType", 
   "field_name": null, 
   "idx": 0, 
   "modified": "2018-11-07 11:34:38.626560", 
   "modified_by": "Administrator", 
   "name": "Stock Entry-default_print_format", 
   "owner": "Administrator", 
   "parent": null, 
   "parentfield": null, 
   "parenttype": null, 
   "property": "default_print_format", 
   "property_type": "Data", 
   "value": "Stock Entry"
  }
 ], 
 "sync_on_migrate": 1
}